{"page":1,"total_results":1000,"total_pages":50,"results":[{"vote_count":5950,"id":181808,"video":false,"vote_average":7.1,"title":"Star Wars: The Last Jedi","popularity":50.365,"poster_path":"\/kOVEVeg59E0wsnXmF9nrh6OmWII.jpg","original_language":"en","original_title":"Star Wars: The Last Jedi","genre_ids":[14,12,878],"backdrop_path":"\/oVdLj5JVqNWGY0LEhBfHUuMrvWJ.jpg","adult":false,"overview":"Rey develops her newly discovered abilities with the guidance of Luke Skywalker, who is unsettled by the strength of her powers. Meanwhile, the Resistance prepares to do battle with the First Order.","release_date":"2017-12-13"},{"vote_count":4445,"id":399055,"video":false,"vote_average":7.3,"title":"The Shape of Water","popularity":36.656,"poster_path":"\/k4FwHlMhuRR5BISY2Gm2QZHlH5Q.jpg","original_language":"en","original_title":"The Shape of Water","genre_ids":[18,14,10749],"backdrop_path":"\/hVYhrKuQNFro6jXHZMn60uYjrIP.jpg","adult":false,"overview":"An other-worldly story, set against the backdrop of Cold War era America circa 1962, where a mute janitor working at a lab falls in love with an amphibious man being held captive there and devises a plan to help him escape.","release_date":"2017-12-01"},{"vote_count":2719,"id":316029,"video":false,"vote_average":8,"title":"The Greatest Showman","popularity":23.461,"poster_path":"\/b9CeobiihCx1uG1tpw8hXmpi7nm.jpg","original_language":"en","original_title":"The Greatest Showman","genre_ids":[18],"backdrop_path":"\/zpq404Sk7qQ7N4x3xOeNgp74GtU.jpg","adult":false,"overview":"The story of American showman P.T. Barnum, founder of the circus that became the famous traveling Ringling Bros. and Barnum & Bailey Circus.","release_date":"2017-12-20"},{"vote_count":4720,"id":353486,"video":false,"vote_average":6.6,"title":"Jumanji: Welcome to the Jungle","popularity":23.452,"poster_path":"\/bXrZ5iHBEjH7WMidbUDQ0U2xbmr.jpg","original_language":"en","original_title":"Jumanji: Welcome to the Jungle","genre_ids":[28,12,35,14],"backdrop_path":"\/rz3TAyd5kmiJmozp3GUbYeB5Kep.jpg","adult":false,"overview":"The tables are turned as four teenagers are sucked into Jumanji's world - pitted against rhinos, black mambas and an endless variety of jungle traps and puzzles. To survive, they'll play as characters from the game.","release_date":"2017-12-09"},{"vote_count":800,"id":364689,"video":false,"vote_average":7,"title":"Ferdinand","popularity":17.931,"poster_path":"\/rMm94JsRfcOPiPVsTRcBiiVBOhz.jpg","original_language":"en","original_title":"Ferdinand","genre_ids":[16,10751,12,35],"backdrop_path":"\/sTOhZruocNubL0HxjvdouwCEL9I.jpg","adult":false,"overview":"Ferdinand, a little bull, prefers sitting quietly under a cork tree just smelling the flowers versus jumping around, snorting, and butting heads with other bulls. As Ferdinand grows big and strong, his temperament remains mellow, but one day five men come to choose the \"biggest, fastest, roughest bull\" for the bullfights in Madrid and Ferdinand is mistakenly chosen.  Based on the classic 1936 children's book by Munro Leaf.","release_date":"2017-12-09"},{"vote_count":698,"id":446791,"video":false,"vote_average":6.3,"title":"All the Money in the World","popularity":17.805,"poster_path":"\/zig7XjXQ7aJhyy2KIGDGPPom4uJ.jpg","original_language":"en","original_title":"All the Money in the World","genre_ids":[53,18,80,9648],"backdrop_path":"\/j3gpAEqIXyFj54eA1d7WI93LFuf.jpg","adult":false,"overview":"The story of the kidnapping of 16-year-old John Paul Getty III and the desperate attempt by his devoted mother to convince his billionaire grandfather Jean Paul Getty to pay the ransom.","release_date":"2017-12-13"},{"vote_count":561,"id":384680,"video":false,"vote_average":6.5,"title":"Hostiles","popularity":17.556,"poster_path":"\/rqoezyB51GfhiloOB5ZErg5HXas.jpg","original_language":"en","original_title":"Hostiles","genre_ids":[18,37,36],"backdrop_path":"\/vBSsIyWExRpe3Robi8SAnayrMq1.jpg","adult":false,"overview":"A legendary Native American-hating Army captain nearing retirement in 1892 is given one last assignment: to escort a Cheyenne chief and his family through dangerous territory back to his Montana reservation.","release_date":"2017-12-22"},{"vote_count":991,"id":396371,"video":false,"vote_average":7.1,"title":"Molly's Game","popularity":15.995,"poster_path":"\/h9hUP5ZJGsjL2wbERrGlj4dMjZq.jpg","original_language":"en","original_title":"Molly's Game","genre_ids":[80,18],"backdrop_path":"\/yvbXGWjg30sj7rohEZvSe90jSJC.jpg","adult":false,"overview":"Molly Bloom, a young skier and former Olympic hopeful becomes a successful entrepreneur (and a target of an FBI investigation) when she establishes a high-stakes, international poker game.","release_date":"2017-12-21"},{"vote_count":1135,"id":301337,"video":false,"vote_average":5.1,"title":"Downsizing","popularity":14.832,"poster_path":"\/uLlmtN33rMuimRq6bu0OoNzCGGs.jpg","original_language":"en","original_title":"Downsizing","genre_ids":[35,18,878],"backdrop_path":"\/rtr0l61RxLPkmZHbZj0WFlGx5G5.jpg","adult":false,"overview":"A kindly occupational therapist undergoes a new procedure to be shrunken to four inches tall so that he and his wife can help save the planet and afford a nice lifestyle at the same time.","release_date":"2017-12-22"},{"vote_count":1131,"id":353616,"video":false,"vote_average":6.4,"title":"Pitch Perfect 3","popularity":14.67,"poster_path":"\/fchHLsLjFvzAFSQykiMwdF1051.jpg","original_language":"en","original_title":"Pitch Perfect 3","genre_ids":[35,10402],"backdrop_path":"\/1qIzlhLGPSm6TxlvXBWe0Q5er7O.jpg","adult":false,"overview":"After the highs of winning the world championships, the Bellas find themselves split apart and discovering there aren't job prospects for making music with your mouth. But when they get the chance to reunite for an overseas USO tour, this group of awesome nerds will come together to make some music, and some questionable decisions, one last time.","release_date":"2017-12-20"},{"vote_count":2096,"id":400106,"video":false,"vote_average":6.3,"title":"Bright","popularity":14.054,"poster_path":"\/whkT53Sv2vKAUiknQ13pqcWaPXB.jpg","original_language":"en","original_title":"Bright","genre_ids":[28,80,14],"backdrop_path":"\/b09HLFIifMNljI7NI9CJgm2gN1Y.jpg","adult":false,"overview":"In an alternate present-day where magical creatures live among us, two L.A. cops become embroiled in a prophesied turf battle.","release_date":"2017-12-22"},{"vote_count":939,"id":400617,"video":false,"vote_average":7.2,"title":"Phantom Thread","popularity":13.542,"poster_path":"\/6jsqmMgR75VYC9AM6eToMJh3RxF.jpg","original_language":"en","original_title":"Phantom Thread","genre_ids":[18,10749],"backdrop_path":"\/vpRMzPqHC03I7hPPET4Av2OT8dI.jpg","adult":false,"overview":"Renowned British dressmaker Reynolds Woodcock comes across Alma, a young, strong-willed woman, who soon becomes a fixture in his life as his muse and lover.","release_date":"2017-12-25"},{"vote_count":444,"id":429189,"video":false,"vote_average":6.2,"title":"Wonder Wheel","popularity":11.298,"poster_path":"\/fPXn8SW4pa4kJErAIAJLmb3Znns.jpg","original_language":"en","original_title":"Wonder Wheel","genre_ids":[18],"backdrop_path":"\/foz058V9rxNlRjpWTst2rTeinmV.jpg","adult":false,"overview":"The story of four characters whose lives intertwine amid the hustle and bustle of the Coney Island amusement park in the 1950s: Ginny, an emotionally volatile former actress now working as a waitress in a clam house; Humpty, Ginny’s rough-hewn carousel operator husband; Mickey, a handsome young lifeguard who dreams of becoming a playwright; and Carolina, Humpty’s long-estranged daughter, who is now hiding out from gangsters at her father’s apartment.","release_date":"2017-12-01"},{"vote_count":23,"id":426030,"video":false,"vote_average":7.2,"title":"Finding Your Feet","popularity":10.815,"poster_path":"\/iX9Shyt2NlczCn27KhhWintZ8xM.jpg","original_language":"en","original_title":"Finding Your Feet","genre_ids":[35,18,10749],"backdrop_path":"\/sA4JS9Q7MrQgghyMEXMHaS6Nqpd.jpg","adult":false,"overview":"A lady has her prim and proper life turned upside down after discovering her husband's affair.","release_date":"2017-12-26"},{"vote_count":30,"id":448194,"video":false,"vote_average":6.4,"title":"Pyewacket","popularity":10.363,"poster_path":"\/8tzAvK9IK1WBTYFD9NH66JPk8vN.jpg","original_language":"en","original_title":"Pyewacket","genre_ids":[53,27],"backdrop_path":"\/yAlx2Ew98rsxyoFVKnPKtGNf3ys.jpg","adult":false,"overview":"A frustrated, angry teenage girl awakens something in the woods when she naively performs an occult ritual to evoke a witch to kill her mother.","release_date":"2017-12-08"},{"vote_count":141,"id":354861,"video":false,"vote_average":5.8,"title":"Father Figures","popularity":9.84,"poster_path":"\/avRiH6kbsw3Wxi1J7857alb9yyt.jpg","original_language":"en","original_title":"Father Figures","genre_ids":[35],"backdrop_path":"\/xfZZ0Dk2bOxOz1C8T8OQVRGGGIq.jpg","adult":false,"overview":"Upon learning that their mother has been lying to them for years about their allegedly deceased father, two fraternal twin brothers hit the road in order to find him.","release_date":"2017-12-21"},{"vote_count":82,"id":487702,"video":false,"vote_average":5.5,"title":"F*&% the Prom","popularity":9.621,"poster_path":"\/1vh1i0JwSeKs5sD8jamH4dvTmVX.jpg","original_language":"en","original_title":"F*&% the Prom","genre_ids":[35],"backdrop_path":"\/bWvV3T3EWH608tRRNsd9AgU3xWD.jpg","adult":false,"overview":"Maddy and Cole were inseparable friends until high school started and Maddy became the most popular girl on campus. When she starts feeling lonely and heartbroken, she reconnects with Cole and the duo conspire to destroy the ultimate teen popularity contest","release_date":"2017-12-05"},{"vote_count":53,"id":460648,"video":false,"vote_average":5.7,"title":"Bleeding Steel","popularity":9.377,"poster_path":"\/8qqPmQr0s2bZHPBMASpBXOKUZoi.jpg","original_language":"zh","original_title":"机器之血","genre_ids":[28,878,53],"backdrop_path":"\/h3ir8VfpSEtoEBJjEarEludkjKL.jpg","adult":false,"overview":"Jackie Chan stars as a hardened special forces agent who fights to protect a young woman from a sinister criminal gang. At the same time, he feels a special connection to the young woman, like they met in a different life.","release_date":"2017-12-18"},{"vote_count":87,"id":323368,"video":false,"vote_average":5.8,"title":"Hangman","popularity":8.952,"poster_path":"\/iEpxKeX7SE3aLm9dTRIuk7o2kDA.jpg","original_language":"en","original_title":"Hangman","genre_ids":[9648,80,53],"backdrop_path":"\/mgKO8vKaEuXdqMc0Ftm28Q2Hpzt.jpg","adult":false,"overview":"A homicide detective teams up with a criminal profiler to catch a serial killer whose crimes are inspired by the children's game, Hangman.","release_date":"2017-12-22"},{"vote_count":79,"id":463602,"video":false,"vote_average":4.8,"title":"Slumber","popularity":8.751,"poster_path":"\/fYbShpy94q0kbr2wqlZ0KmpcQy7.jpg","original_language":"en","original_title":"Slumber","genre_ids":[27],"backdrop_path":"\/aGAWFJ9DvlDRzz8SGW1DVplB28a.jpg","adult":false,"overview":"A sleep doctor tries to protect a family from a demon that feeds on people in their nightmares.","release_date":"2017-12-01"}]}
